…
The default behavior installs only the ITIS database. You can also
specify a list of authorities to install, or install every authority
using `td_create("all")`.

## Test drive

Once the databases have been set up, we’re ready to explore.  
Here’s a list of all the birds species known to ITIS:

``` r
descendants(name = "Aves", rank = "class")
#> # A tibble: 12,614 x 14
#>    taxonID acceptedNameUsa… update_date scientificName taxonRank
#>    <chr>   <chr>            <chr>       <chr>          <chr>    
#>  1 ITIS:1… ITIS:562791      2016-04-29  Rollandia mic… species  
#>  2 ITIS:1… ITIS:176409      2016-04-29  Ardea helias   species  
#>  3 ITIS:1… ITIS:707807      2016-04-29  Mesites varie… species  
#>  4 ITIS:1… ITIS:561100      2016-04-29  Mesites unico… species  
#>  5 ITIS:1… ITIS:561100      2016-04-29  Mesoenas unic… species  
#>  6 ITIS:1… ITIS:707807      2016-04-29  Mesoenas vari… species  
#>  7 ITIS:1… ITIS:562791      2016-04-29  Podiceps micr… species  
#>  8 ITIS:1… ITIS:563259      2016-04-29  Colymbus rufi… species  
#>  9 ITIS:1… ITIS:824133      2016-04-29  Podiceps tric… species  
#> 10 ITIS:1… ITIS:174508      2016-04-29  Colymbus domi… species  
#> # … with 12,604 more rows, and 9 more variables: taxonomicStatus <chr>,
#> #   kingdom <chr>, phylum <chr>, class <chr>, order <chr>, family <chr>,
#> #   genus <chr>, specificEpithet <chr>, infraspecificEpithet <chr>
```
…
