Crosswalking The Authorities • taxald
…
wd_fb <- ids(species, "wd", pull = FALSE) 
dim(wd_fb)[1] - length(species)
#> [1] 3

#col_hierarchy <- classification(id = col_fb$id) %>% filter(kingdom == "Animalia") 

taxa_tbl("col", "hierarchy") %>%
  filter(kingdom == "Animalia") %>%
  semi_join(select(col_fb, id), copy = TRUE) %>%
  select(id, species) %>% 
  collect()
#> Joining, by = "id"
#> # A tibble: 32,361 x 2
#>    id           species     
#>    <chr>        <chr>       
#>  1 COL:21092068 immaculata  
#>  2 COL:21092241 felis       
#>  3 COL:21092375 bentincki   
#>  4 COL:21092504 rubrofuscus 
#>  5 COL:21092598 acuminatus  
#>  6 COL:21092599 sadina      
#>  7 COL:21092690 grandicassis
#>  8 COL:21092694 ansorgii    
#>  9 COL:21092789 lineolata   
#> 10 COL:21093101 melanotheron
#> # ... with 32,351 more rows
…
