Tutorial for taxadb • taxadb
…
Note that by default, td_create() will not attempt to overwrite any providers which we have already installed. This means we can freely include td_create() at the beginning of scripts and analysis for reproducibility without concern that it will keep re-downloading and slowing things down. With this in place, we are ready to load in the species list from the Breeding Bird Survey [@bbs], taken from ftp://ftpext.usgs.gov/pub/er/md/laurel/BBS/DataFiles/SpeciesList.txt:

bbs <- read_tsv(system.file("extdata/bbs.tsv", package="taxadb"))
bbs
#> # A tibble: 750 x 9
#>      Seq AOU   English_Common_… French_Common_N… Spanish_Common_… order
#>    <dbl> <chr> <chr>            <chr>            <chr>            <chr>
#>  1     6 01770 Black-bellied W… "Dendrocygne \x… Dendrocygna aut… Anse…
#>  2     7 01780 Fulvous Whistli… Dendrocygne fau… Dendrocygna bic… Anse…
#>  3     8 01760 Emperor Goose    Oie empereur     Anser canagicus  Anse…
#>  4     9 01690 Snow Goose       Oie des neiges   Anser caerulesc… Anse…
#>  5    10 01691 (Blue Goose) Sn… Oie des neiges … Chen caerulesce… Anse…
#>  6    11 01700 Ross's Goose     Oie de Ross      Anser rossii     Anse…
#>  7    13 01710 Greater White-f… Oie rieuse       Anser albifrons  Anse…
#>  8    18 01730 Brant            Bernache cravant Branta bernicla  Anse…
#>  9    19 01740 (Black Brant) B… Bernache cravan… Branta bernicla… Anse…
#> 10    21 01725 Cackling Goose   Bernache de Hut… Branta hutchins… Anse…
#> # … with 740 more rows, and 3 more variables: family <chr>, genus <chr>,
#> #   species <chr>
…
bbs_cleaned_ids %>% filter(is.na(ott) & !is.na(ids_post_clean))
#> # A tibble: 75 x 3
#>    species                                     ott   ids_post_clean
#>    <chr>                                       <chr> <chr>         
#>  1 Chen caerulescens (blue form)               <NA>  OTT:190878    
#>  2 Anas platyrhynchos x rubripes or fulvigula  <NA>  OTT:765167    
#>  3 Aythya marila / affinis                     <NA>  OTT:1044561   
#>  4 Melanitta perspicillata / fusca / americana <NA>  OTT:972536    
#>  5 Bucephala clangula / islandica              <NA>  OTT:166683    
#>  6 Dendragapus obscurus / fuliginosus          <NA>  OTT:1003843   
#>  7 Aechmophorus occidentalis / clarkii         <NA>  OTT:758343    
#>  8 Coccyzus americanus / erythropthalmus       <NA>  OTT:891425    
#>  9 Chordeiles acutipennis / minor              <NA>  OTT:484902    
#> 10 Chordeiles minor / gundlachii               <NA>  OTT:870594    
#> # … with 65 more rows
…
We can also use the vernacularName field available in some naming providers to resolve common names:

by_rank("Aves", "class", "itis") %>% 
  filter(grepl("Woodpecker", vernacularName)) %>%
  select(vernacularName, scientificName, acceptedNameUsageID)
#> # A tibble: 181 x 3
#>    vernacularName        scientificName                   acceptedNameUsag…
#>    <chr>                 <chr>                            <chr>            
#>  1 Red-bellied Woodpeck… Centurus carolinus               ITIS:178195      
#>  2 Red-bellied Woodpeck… Centurus carolinus zebra         ITIS:178195      
#>  3 Red-bellied Woodpeck… Centurus carolinus carolinus     ITIS:178195      
#>  4 Red-bellied Woodpeck… Centurus carolinus perplexus     ITIS:178195      
#>  5 Red-bellied Woodpeck… Centurus carolinus harpaceus     ITIS:178195      
#>  6 Golden-fronted Woodp… Centurus aurifrons               ITIS:178194      
#>  7 Gila Woodpecker       Centurus uropygialis             ITIS:178198      
#>  8 Red-headed Woodpecker Melanerpes erythrocephalus caur… ITIS:178186      
#>  9 Red-headed Woodpecker Melanerpes erythrocephalus eryt… ITIS:178186      
#> 10 Lewis's Woodpecker    Asyndesmus lewis                 ITIS:178196      
#> # … with 171 more rows
…
