taxadb overview • taxadb
…
Unfortunately, as anyone who has attempted this kind of exercise over more than a handful of species has discovered, this often works for most but very rarely for all of the species names involved. There are several reasons this process runs into problems.

Synonyms. One of the most common problems is the existence of synonyms: different names or different spellings of a given scientific name. While this could include definite miss-spellings, for there are many species for which authorities can differ in the preferred name – essentially, two or more different names correspond to the same species, and should be treated as such in our species join.

For instance, we consider the 233 primate species names used in the geiger package primates data. To avoid installing that dependency-heavy package, a copy of these names has been cached in taxadb and can be loaded as follows:

ex <- system.file("extdata", "primates.tsv.bz2", package = "taxadb", mustWork = TRUE)
primates <- readr::read_tsv(ex)
#> Parsed with column specification:
#> cols(
#>   species = col_character()
#> )
primates
#> # A tibble: 233 x 1
#>    species                    
#>    <chr>                      
#>  1 Allenopithecus nigroviridis
#>  2 Allocebus trichotis        
#>  3 Alouatta belzebul          
#>  4 Alouatta caraya            
#>  5 Alouatta coibensis         
#>  6 Alouatta fusca             
#>  7 Alouatta palliata          
#>  8 Alouatta pigra             
#>  9 Alouatta sara              
#> 10 Alouatta seniculus         
#> # ... with 223 more rows
…
unmatched <- my_taxa %>% filter(is.na(id)) %>% pull(species) 
synonyms(unmatched)
#> # A tibble: 3 x 6
#>   name             accepted_name   id         synonym_id rank   update_date
#>   <chr>            <chr>           <chr>      <chr>      <chr>  <chr>      
#> 1 Aotus hershkovi… Aotus lemurinus ITIS:5729… ITIS:5729… speci… 2014-06-26 
#> 2 Aotus brumbacki  <NA>            <NA>       <NA>       <NA>   <NA>       
#> 3 Varecia variega… <NA>            <NA>       <NA>       <NA>   <NA>

Under the hood, get_ids checks the names against synonyms known to the authority as well. If we only looke for direct matches, we would have faired far worse.

Mimicking taxize function of the same name get_ids is returning just a vector of ids, which is useful for operations such as mutate above. However, it is often convenient to return the full table of matched names. Here we can see that many of the names we have matched against are actually synonyms, and that get_ids has been able to resolve them into accepted ids.

ids(primates$species)
#> # A tibble: 233 x 6
#>    id         accepted_id  update_date name               rank   name_usage
#>    <chr>      <chr>        <chr>       <chr>              <chr>  <chr>     
#>  1 ITIS:5728… ITIS:944041  2014-06-26  Microcebus coquer… speci… synonym   
#>  2 ITIS:5728… ITIS:944072  2014-06-26  Hapalemur simus    speci… synonym   
#>  3 ITIS:5728… ITIS:944100  2014-06-26  Galago alleni      speci… synonym   
#>  4 ITIS:5729… ITIS:1025177 2017-03-30  Galagoides zanzib… speci… synonym   
#>  5 ITIS:5729… ITIS:945103  2014-06-26  Tarsius bancanus   speci… synonym   
#>  6 ITIS:5729… ITIS:944117  2014-06-26  Tarsius dianae     speci… synonym   
#>  7 ITIS:5729… ITIS:944115  2014-06-26  Tarsius spectrum   speci… synonym   
#>  8 ITIS:5729… ITIS:945107  2014-06-26  Tarsius syrichta   speci… synonym   
#>  9 ITIS:5729… ITIS:944125  2014-06-26  Callithrix argent… speci… synonym   
#> 10 ITIS:5729… ITIS:944138  2014-06-26  Callithrix humera… speci… synonym   
#> # ... with 223 more rows
Note that name is the name we provided (species names in this case, but it they do not have to be). Because synonyms-check is TRUE by default, we get a list of accepted names recognized (by ITIS in this case, our default authority).

We aren’t stuck with ITIS though, we can work with other naming authorities as well:

my_taxa <- primates %>%  
  mutate(itis = get_ids(species, "itis"),
         ncbi = get_ids(species, "ncbi"),
         col = get_ids(species, "col"),
         gbif = get_ids(species, "gbif"),
         wd = get_ids(species, "wd"),
         tpl = get_ids(species, "tpl"),
         fb = get_ids(species, "fb"),
         slb = get_ids(species, "slb")) 
my_taxa
#> # A tibble: 233 x 9
#>    species            itis    ncbi  col    gbif   wd      tpl   fb    slb  
#>    <chr>              <chr>   <chr> <chr>  <chr>  <chr>   <chr> <chr> <chr>
#>  1 Allenopithecus ni… 944041  9472  21940… 24363… Q15978… <NA>  <NA>  <NA> 
#>  2 Allocebus trichot… 944072  9542  21940… 24363… Q35158… <NA>  <NA>  <NA> 
#>  3 Alouatta belzebul  944100  9557  21940… 24363… Q10647… <NA>  <NA>  <NA> 
#>  4 Alouatta caraya    1025177 9579  21940… 24364… Q41267… <NA>  <NA>  <NA> 
#>  5 Alouatta coibensis 945103  9593  21941… 24364… Q21970… <NA>  <NA>  <NA> 
#>  6 Alouatta fusca     944117  9600  21941… 24364… Q22113… <NA>  <NA>  <NA> 
#>  7 Alouatta palliata  944115  13515 21940… 24364… Q21963… <NA>  <NA>  <NA> 
#>  8 Alouatta pigra     945107  30602 21940… 24364… Q21948… <NA>  <NA>  <NA> 
#>  9 Alouatta sara      944125  2224… 21940… 24364… Q21948… <NA>  <NA>  <NA> 
#> 10 Alouatta seniculus 944138  9598  21940… 24364… Q713841 <NA>  <NA>  <NA> 
#> # ... with 223 more rows
…
One species still fails to resolve under any authority. A web search does resolve this as a misspelling, to Leontopithecus chrysomelas, but not one that is recongized automatically by the ITIS known synonyms.

Hierarchy

Once we have resolved our ids, we can also get full classification information. This example uses the default authority, ITIS:

primate_ids <- get_ids(primates$species, format = "prefix")
classification(id = primate_ids)
#> Joining, by = "id"
#> # A tibble: 233 x 26
#>    id    class family genus infraclass infrakingdom infraorder infraphylum
#>    <chr> <chr> <chr>  <chr> <chr>      <chr>        <chr>      <chr>      
#>  1 ITIS… Mamm… Homin… Homo  Eutheria   Deuterostom… Simiiform… Gnathostom…
#>  2 ITIS… Mamm… Cebid… Saim… Eutheria   Deuterostom… Simiiform… Gnathostom…
#>  3 ITIS… Mamm… Cerco… Maca… Eutheria   Deuterostom… Simiiform… Gnathostom…
#>  4 ITIS… Mamm… Cerco… Maca… Eutheria   Deuterostom… Simiiform… Gnathostom…
#>  5 ITIS… Mamm… Cerco… Chlo… Eutheria   Deuterostom… Simiiform… Gnathostom…
#>  6 ITIS… Mamm… Cerco… Maca… Eutheria   Deuterostom… Simiiform… Gnathostom…
#>  7 ITIS… Mamm… Cheir… Allo… Eutheria   Deuterostom… Lemurifor… Gnathostom…
#>  8 ITIS… Mamm… Cheir… Chei… Eutheria   Deuterostom… Lemurifor… Gnathostom…
#>  9 ITIS… Mamm… Cheir… Chei… Eutheria   Deuterostom… Lemurifor… Gnathostom…
#> 10 ITIS… Mamm… Cheir… Micr… Eutheria   Deuterostom… Lemurifor… Gnathostom…
#> # ... with 223 more rows, and 18 more variables: kingdom <chr>,
#> #   order <chr>, phylum <chr>, section <chr>, species <chr>,
#> #   subclass <chr>, subfamily <chr>, subgenus <chr>, subkingdom <chr>,
#> #   suborder <chr>, subphylum <chr>, subsection <chr>, subtribe <chr>,
#> #   superclass <chr>, superfamily <chr>, superorder <chr>,
#> #   superphylum <chr>, tribe <chr>

the classification function can work on species names directly, but this will not resolve syonyms to identifiers first. As a result, only the 180 already recognized species names can be resolved in this case:

classification(species = primates$species)
#> Joining, by = "species"
#> # A tibble: 233 x 26
#>    id    class family genus infraclass infrakingdom infraorder infraphylum
#>    <chr> <chr> <chr>  <chr> <chr>      <chr>        <chr>      <chr>      
#>  1 ITIS… Mamm… Homin… Homo  Eutheria   Deuterostom… Simiiform… Gnathostom…
#>  2 ITIS… Mamm… Cebid… Saim… Eutheria   Deuterostom… Simiiform… Gnathostom…
#>  3 ITIS… Mamm… Cerco… Maca… Eutheria   Deuterostom… Simiiform… Gnathostom…
#>  4 ITIS… Mamm… Cerco… Maca… Eutheria   Deuterostom… Simiiform… Gnathostom…
#>  5 ITIS… Mamm… Cerco… Chlo… Eutheria   Deuterostom… Simiiform… Gnathostom…
#>  6 ITIS… Mamm… Cerco… Maca… Eutheria   Deuterostom… Simiiform… Gnathostom…
#>  7 ITIS… Mamm… Cheir… Allo… Eutheria   Deuterostom… Lemurifor… Gnathostom…
#>  8 ITIS… Mamm… Cheir… Chei… Eutheria   Deuterostom… Lemurifor… Gnathostom…
#>  9 ITIS… Mamm… Cheir… Chei… Eutheria   Deuterostom… Lemurifor… Gnathostom…
#> 10 ITIS… Mamm… Cheir… Micr… Eutheria   Deuterostom… Lemurifor… Gnathostom…
#> # ... with 223 more rows, and 18 more variables: kingdom <chr>,
#> #   order <chr>, phylum <chr>, section <chr>, species <chr>,
#> #   subclass <chr>, subfamily <chr>, subgenus <chr>, subkingdom <chr>,
#> #   suborder <chr>, subphylum <chr>, subsection <chr>, subtribe <chr>,
#> #   superclass <chr>, superfamily <chr>, superorder <chr>,
#> #   superphylum <chr>, tribe <chr>
…
