Taxonomic Linked Data • taxald
…
We can get the full hierachical classification for this list of species:

tic()
classification(df$species)
#> Joining, by = "species"
#> # A tibble: 10,401 x 26
#>    id    class family genus infraclass infrakingdom infraorder infraphylum
#>    <chr> <chr> <chr>  <chr> <chr>      <chr>        <chr>      <chr>      
#>  1 ITIS… Aves  Strut… Stru… <NA>       Deuterostom… <NA>       Gnathostom…
#>  2 ITIS… Aves  Rheid… Rhea  <NA>       Deuterostom… <NA>       Gnathostom…
#>  3 ITIS… Aves  Droma… Drom… <NA>       Deuterostom… <NA>       Gnathostom…
#>  4 ITIS… Aves  Casua… Casu… <NA>       Deuterostom… <NA>       Gnathostom…
#>  5 ITIS… Aves  Casua… Casu… <NA>       Deuterostom… <NA>       Gnathostom…
#>  6 ITIS… Aves  Apter… Apte… <NA>       Deuterostom… <NA>       Gnathostom…
#>  7 ITIS… Aves  Tinam… Tina… <NA>       Deuterostom… <NA>       Gnathostom…
#>  8 ITIS… Aves  Tinam… Tina… <NA>       Deuterostom… <NA>       Gnathostom…
#>  9 ITIS… Aves  Tinam… Tina… <NA>       Deuterostom… <NA>       Gnathostom…
#> 10 ITIS… Aves  Tinam… Tina… <NA>       Deuterostom… <NA>       Gnathostom…
#> # ... with 10,391 more rows, and 18 more variables: kingdom <chr>,
#> #   order <chr>, phylum <chr>, section <chr>, species <chr>,
#> #   subclass <chr>, subfamily <chr>, subgenus <chr>, subkingdom <chr>,
#> #   suborder <chr>, subphylum <chr>, subsection <chr>, subtribe <chr>,
#> #   superclass <chr>, superfamily <chr>, superorder <chr>,
#> #   superphylum <chr>, tribe <chr>
…
