Tutorial for taxadb • taxadb
…
bbs_cleaned_ids %>% filter(is.na(ott) & !is.na(ids_post_clean))
#> # A tibble: 75 x 3
#>    species                                     ott   ids_post_clean
#>    <chr>                                       <chr> <chr>         
#>  1 Chen caerulescens (blue form)               <NA>  OTT:190878    
#>  2 Anas platyrhynchos x rubripes or fulvigula  <NA>  OTT:765167    
#>  3 Aythya marila / affinis                     <NA>  OTT:1044561   
#>  4 Melanitta perspicillata / fusca / americana <NA>  OTT:972536    
#>  5 Bucephala clangula / islandica              <NA>  OTT:166683    
#>  6 Dendragapus obscurus / fuliginosus          <NA>  OTT:1003843   
#>  7 Aechmophorus occidentalis / clarkii         <NA>  OTT:758343    
#>  8 Coccyzus americanus / erythropthalmus       <NA>  OTT:891425    
#>  9 Chordeiles acutipennis / minor              <NA>  OTT:484902    
#> 10 Chordeiles minor / gundlachii               <NA>  OTT:870594    
#> # … with 65 more rows
…
We can also use the vernacularName field available in some naming providers to resolve common names:

by_rank("Aves", "class", "col") %>% 
  filter(grepl("Woodpecker", vernacularName)) %>%
  select(vernacularName, scientificName, acceptedNameUsageID)
#> # A tibble: 161 x 3
#>    vernacularName            scientificName             acceptedNameUsageID
#>    <chr>                     <chr>                      <chr>              
#>  1 Pileated Woodpecker       Dryocopus pileatus         COL:35519707       
#>  2 Red-headed Woodpecker     Melanerpes erythrocephalus COL:35519725       
#>  3 Acorn Woodpecker          Melanerpes formicivorus    COL:35519728       
#>  4 Golden-fronted Woodpecker Melanerpes aurifrons       COL:35519733       
#>  5 Red-bellied Woodpecker    Melanerpes carolinus       COL:35519734       
#>  6 Lewis's Woodpecker        Melanerpes lewis           COL:35519735       
#>  7 Puerto Rican Woodpecker   Melanerpes portoricensis   COL:35519736       
#>  8 Gila Woodpecker           Melanerpes uropygialis     COL:35519737       
#>  9 Black-backed Woodpecker   Picoides arcticus          COL:35519785       
#> 10 Three-toed Woodpecker     Picoides tridactylus       COL:35519786       
#> # … with 151 more rows
…
