common name starts with — common_starts_with • taxadb
…
      ignore_case
      should we ignore case (capitalization) in matching names?
default is TRUE.

    Examples

# \donttest{
  # \dontshow{
   ## All examples use a temporary directory
   Sys.setenv(TAXADB_HOME=tempdir())
  # }
common_starts_with("monkey")
#> not overwriting 2019_dwc_itis
#> # A tibble: 29 x 15
#>    taxonID scientificName taxonRank acceptedNameUsa… taxonomicStatus update_date
#>    <chr>   <chr>          <chr>     <chr>            <chr>           <chr>      
#>  1 ITIS:3… Satureja mimu… species   ITIS:565079      synonym         NA         
#>  2 ITIS:3… Mimetanthe     genus     ITIS:33233       synonym         NA         
#>  3 ITIS:5… Mimosa cycloc… species   ITIS:502307      synonym         NA         
#>  4 ITIS:8… Quadrula meta… species   ITIS:984067      synonym         NA         
#>  5 ITIS:8… Araucaria imb… species   ITIS:183482      synonym         NA         
#>  6 ITIS:9… Palaemon lar   species   ITIS:96308       synonym         NA         
#>  7 ITIS:9… Cancer teatae  species   ITIS:96308       synonym         NA         
#>  8 ITIS:9… Obliquaria me… species   ITIS:984067      synonym         NA         
#>  9 ITIS:9… Unio nodosus   species   ITIS:984067      synonym         NA         
#> 10 ITIS:9… Unio wardii    species   ITIS:984067      synonym         NA         
#> # … with 19 more rows, and 9 more variables: kingdom <chr>, phylum <chr>,
#> #   class <chr>, order <chr>, family <chr>, genus <chr>, specificEpithet <chr>,
#> #   vernacularName <chr>, infraspecificEpithet <chr>
…
