…
filter_by(c("ITIS:1077358", "ITIS:175089"), "taxonID")
#> # A tibble: 2 x 17
#>    sort taxonID scientificName taxonRank acceptedNameUsa… taxonomicStatus
#>   <int> <chr>   <chr>          <chr>     <chr>            <chr>          
#> 1     1 ITIS:1… Antrostomus v… species   ITIS:1077358     accepted       
#> 2     2 ITIS:1… Anas cyanopte… species   ITIS:175089      accepted       
#> # … with 11 more variables: update_date <chr>, kingdom <chr>, phylum <chr>,
#> #   class <chr>, order <chr>, family <chr>, genus <chr>, specificEpithet <chr>,
#> #   vernacularName <chr>, infraspecificEpithet <chr>, input <chr>

filter_by("Aves", "class")
#> # A tibble: 12,704 x 17
#>     sort taxonID scientificName taxonRank acceptedNameUsa… taxonomicStatus
#>    <int> <chr>   <chr>          <chr>     <chr>            <chr>          
#>  1     1 ITIS:1… Rollandia mic… species   ITIS:562791      synonym        
#>  2     1 ITIS:1… Ardea helias   species   ITIS:176409      synonym        
#>  3     1 ITIS:1… Mesites varie… species   ITIS:707807      synonym        
#>  4     1 ITIS:1… Mesites unico… species   ITIS:561100      synonym        
#>  5     1 ITIS:1… Mesoenas unic… species   ITIS:561100      synonym        
#>  6     1 ITIS:1… Mesoenas vari… species   ITIS:707807      synonym        
#>  7     1 ITIS:1… Podiceps micr… species   ITIS:562791      synonym        
#>  8     1 ITIS:1… Colymbus rufi… species   ITIS:563259      synonym        
#>  9     1 ITIS:1… Podiceps tric… species   ITIS:824133      synonym        
#> 10     1 ITIS:1… Colymbus domi… species   ITIS:174508      synonym        
#> # … with 12,694 more rows, and 11 more variables: update_date <chr>,
#> #   kingdom <chr>, phylum <chr>, class <chr>, order <chr>, family <chr>,
#> #   genus <chr>, specificEpithet <chr>, vernacularName <chr>,
#> #   infraspecificEpithet <chr>, input <chr>
…
